…
cor_vec <- rep(NA,ncol(cor_mat))
for(i in seq_along(cor_mat)){
  cor_vec[i] <- cor(cor_mat$right,cor_mat[,i])
}
```

    ## Warning in cor(cor_mat$right, cor_mat[, i]): the standard deviation is zero

``` r
tibble(cor_vec,
       names(cor_mat)) %>% 
  arrange(desc(cor_vec))
```

    ## # A tibble: 22 x 2
    ##    cor_vec `names(cor_mat)`    
    ##      <dbl> <chr>               
    ##  1   1     right               
    ##  2   0.668 fis_con             
    ##  3   0.460 soc_con             
    ##  4   0.445 SDO                 
    ##  5   0.379 nat                 
    ##  6   0.376 RWA                 
    ##  7   0.227 W2_Newspaper_prefer1
    ##  8   0.149 W2_Internal_Total   
    ##  9   0.135 age_sc              
    ## 10   0.112 W1_Income_2019      
    ## # ... with 12 more rows
…
    ## Warning in cor(cor_mat$soc_con, cor_mat[, i]): the standard deviation is zero

``` r
tibble(cor_vec2,
       names(cor_mat)) %>% 
  arrange(desc(cor_vec2))
```

    ## # A tibble: 22 x 2
    ##    cor_vec2 `names(cor_mat)`    
    ##       <dbl> <chr>               
    ##  1    1     soc_con             
    ##  2    0.503 fis_con             
    ##  3    0.460 right               
    ##  4    0.448 RWA                 
    ##  5    0.380 SDO                 
    ##  6    0.261 nat                 
    ##  7    0.199 W2_Trust_Body6      
    ##  8    0.183 W2_Newspaper_prefer1
    ##  9    0.151 W2_DAI_Total        
    ## 10    0.114 W2_Paranoia_Total   
    ## # ... with 12 more rows
…
    ## Warning in cor(cor_mat$fis_con, cor_mat[, i]): the standard deviation is zero

``` r
tibble(cor_vec3,
       names(cor_mat)) %>% 
  arrange(desc(cor_vec3))
```

    ## # A tibble: 22 x 2
    ##    cor_vec3 `names(cor_mat)`    
    ##       <dbl> <chr>               
    ##  1    1.00  fis_con             
    ##  2    0.668 right               
    ##  3    0.503 soc_con             
    ##  4    0.404 SDO                 
    ##  5    0.381 nat                 
    ##  6    0.362 RWA                 
    ##  7    0.208 W2_Newspaper_prefer1
    ##  8    0.157 W2_Internal_Total   
    ##  9    0.131 W1_Income_2019      
    ## 10    0.128 age_sc              
    ## # ... with 12 more rows
…
    ## Warning in cor(cor_mat$W2_Paranoia_Total, cor_mat[, i]): the standard deviation
    ## is zero

``` r
tibble(cor_vec4,
       names(cor_mat)) %>% 
  arrange(desc(cor_vec4))
```

    ## # A tibble: 22 x 2
    ##    cor_vec4 `names(cor_mat)`    
    ##       <dbl> <chr>               
    ##  1    1     W2_Paranoia_Total   
    ##  2    0.463 W2_IOU_Total        
    ##  3    0.441 W2_DAI_Total        
    ##  4    0.418 W2_Chance_Total     
    ##  5    0.247 W2_INFO_5           
    ##  6    0.237 W2_Trust_Body6      
    ##  7    0.158 SDO                 
    ##  8    0.137 W2_INFO_9           
    ##  9    0.131 W2_Newspaper_prefer9
    ## 10    0.114 soc_con             
    ## # ... with 12 more rows
…
